388202963698585600
388201972341690368
388176081640890368
388133680557744128
388125150383599618
388124234460839937
388123655802073088
388122952945786881
388122805927034880
388121933595680768
388121337736097793
388099090640166913
388087342201720833
388075338741587968
388074997274935296
388060132724441088
388057606222520320
388057479072194560
388057353553477632
388057219616768001
