388037878988541952
388033660667961344
388016228310065152
388007208249618432
388007086954532864
388006926912479232
388002506405855232
388001618852999168
388001307551731712
387503018259673089
387047212015824896
386889770158129152
386881895587278848
386743872652460032
386743209990164480
386674464974311424
386656796829437952
386656253297971201
386628167919620096
386627559896514560
