388097142570487808
388091558542594049
388089037963018240
388080822026137601
388079489705455616
388076390710407170
388073563791433728
388062910938759169
388057997412282368
388056734620594176
388048375435640834
388019510734639104
388018294176772096
388015864282247168
388000624991690752
388000611892879360
387988372125274112
387975057609224192
387756972298477568
387742674411094016
