388097740577972224
388056991991865344
388051813909274624
388028997835051008
388013556442357760
387995103039455232
387991485331042304
387981892588298240
387980826152955905
387980158881124353
387979949706989568
387979547875872768
387979332540321794
387978840623947776
387978459609178113
387974010543161345
387938516690157568
387803634504704000
387800710630223872
387800649066635265
