388205036268167169
388204418220695552
387620457903837184
387619823855087616
387314333224804352
387296034822434817
387295725669076992
387295668295176192
387098496706560000
386909680003321856
386590293824643072
386590238384328704
386261936922718208
386260325420761088
386260272471887872
386260209242746880
386253541075329024
386252387729408000
386250408286777344
386195414812483584
