388132218578563072
388130014291439616
387722420980678656
387445155713662976
387443222265356290
387440089585811456
387438715590541312
387436341580922880
387341009291472897
387240740486520832
387094909775130624
387090629257203712
387082466000781312
387065054941552641
387063017080254464
387058900203085824
387038756802289664
387031653513568256
386923794176020483
386923731861241856
