387866998035976193
387635854589825024
387634955108777984
387634821230772224
387359874138791936
387359576833929217
387359450677653504
387359095076163584
387351289635819520
387350615615352832
387345427093549056
387345184495005696
387344222111928320
387283998332182528
386652285318987776
386650755182366720
386650301329309696
386648781338734592
386648303787843584
386562476705595393
