388205320604246016
388178896711327744
388105790294589440
388074939913220096
388014325253693440
388012618365304832
388006382395736065
387974940118769664
387667942923444225
387664995158208512
387653335484227584
387652795098468352
387634417507643392
387616302837534720
387443890716147712
387407442751270912
387347493769707521
387314291592151040
387313931594641408
386984580114567168
