388164552510038016
387439185482641408
387334951302991872
387334207535472640
386208174295896064
386192605278527488
386177330713862144
385487691644559360
384438842452742144
382876153104433153
382706793090002944
380459012308758529
379825771713273856
378560325261352960
378229864630743040
376798172334419970
376197366371475458
375434581983244289
374974455874715649
373229183079424000
