388304248779186176
388302993814073344
388293019843436544
388137327836418049
388137325810573313
388121790137917440
387625579274444800
387625246305828864
387625231588012032
387599807721660417
387591923088642048
387567967216476160
387399031116550144
387393452184719360
387392957210710016
387391609849274368
386683085028212736
386682953620680704
385818812601233408
385802765911339008
