388091908167184385
388080064698404864
388076957558001665
388069648601583616
388068599862030336
388068277240344576
388065101887975424
388063485482909696
388061592694173696
388060316166135808
388045489200828416
388038460977577985
388037497885700096
388037267450642432
388033212275912705
388032878774218752
388026004293566464
388024951694848000
388021751369564160
388009012504973312
