387563827857879040
387255980112637954
387247652410097664
386703025001074688
386500763964305408
386493685954654208
386348582514991104
386348051436437504
385968484565671936
385966416131670016
385965285758337025
385964622001348608
385964402605707265
385964232959098880
385964153363369985
385963253828190208
385963021052706816
385961645681700864
385852571832709120
385547486787805184
