388100794748137472
387352247828742144
381413544417587200
378873558514302976
378601925924909056
377617252079919104
375433104485539840
372206256335114240
372205744697122816
371678567807344640
369489834793914368
368194224640262145
367856326371991552
366794404477935618
366671482350350336
365268141372219394
362728341154967552
362056879049936898
361958153073606656
361891884207058945
