388107969373933568
388107286126022656
388106527607107584
388104700031418368
388104206479269888
388101732762660864
388101564340387840
388098942220926976
388098520068390912
388097751810338817
388096957472079872
388093504616157184
388092987437498368
388092316835393536
388090370250534912
388090101471137792
388088935198777344
388088459648585728
388086483942637568
388086137342144512
