382819265989971968
381384931324084224
381384924105687040
378645927751217152
378632398516142080
378630172053753856
378630006865289217
378629861964648448
378247524642877440
377871437249253376
376098140098543616
374641110728986624
373193919887986688
368479659211505664
368218082113626112
365528788295106561
364937034651017217
364935830088859649
364919738243088387
364919564405981185
