388160537248292865
387954328524587009
387954163730378752
387953898360963072
387953759827275776
387953628708757504
387931141413404672
387931058400145408
387931012568977409
387914221070999553
387741994790825984
387357703904837632
387357336274092032
387357139829678081
387356557236641792
387275119413825536
387261825642819584
387255410781999105
385542413399236608
384859985152196608
