388149802749284352
388148826806042624
388134636116652033
388131238873014272
388130567335575552
388129991004655616
388129493128208384
388129149874757632
388129039036067841
388127587517476864
388126758488133633
388126624178114560
388126185730760704
388125623325302784
388125571323944960
388125345393557504
388124064646057984
388123981338796032
388123083392839680
388093731858944000
