387984966485028864
387774934908674048
387774548134735872
387774229196058624
387774214625067008
387773050575257600
387772492141432832
387772428128378880
387772076016537600
387771966012526594
387771321603473408
387771109979877376
387771019416465408
387770956800069632
387770941021106177
387770444696150016
387770369467494400
387770357312413698
387769690258681856
387769508670504960
