388175786605555712
388175760361787392
388175646314483712
388166861814509568
388166393042333696
388026448768155648
388025584359841794
388020416033603584
388018728480559104
388016641902403584
388016399379345409
387968810499981312
387944267991498752
387705641999302656
387705600278560768
387705523107557376
387704928422346753
387704434765340672
387703947471126528
387703601424269312
