346798322578759680
346796613995474944
344663147422035970
334473640907243522
334472685461573633
333248083376893952
330463120202010624
330463059313311746
330292417771208704
330147584087818240
329908968094851073
329853418548117505
329705963739287553
329112027593314304
329111802128510977
329110581598642176
329110514800148480
329108842489200640
329108762948431872
329108604990939136
