370617883895672832
370617717562175488
370617700722024448
370617205701877760
370616794873987072
370616678532411392
370616398109630464
370616312919101440
370615986795188224
370615390335815680
370615070289457153
370615010260578304
370614747839733760
370614460886421505
370614158481297408
370614152252768256
370613943816830976
370611821025038336
370611742138585088
370611587595239424
