384425362186178560
384425149300088832
380510622388977664
380510317836382208
372835664964120576
372624202932580352
366876173495582720
366090036158005248
362023448387661825
361608047866560513
361337968813809664
360762635312054274
359765498734444545
359763265393393664
356241175197392899
356148461156048897
356148169601581056
356147933168672768
355820468399386624
355442916413542400
