375718145220046848
375717662107529216
371708515267936256
371707436564221952
371705163930959872
371704631472451584
328226353591758849
328226003967176704
328225169602670592
328224981999837184
318380921554358272
318380862511132672
306930407704760321
305099827895734272
305099678960201729
304397241458778114
304396924365189120
304395181527035904
304395030519508993
304394303600476160
