388003858674229248
388000096987516929
387999124068397056
387997366554337280
387340442855301121
387295281735557120
387293211393159168
387266008064327680
387265321955901440
384728897734336512
383639423872540672
383639360093970432
383639252493279232
383639186865004545
382857031666761728
382533420309823488
382126618778804224
381808297545723907
381107233435549696
381086373203017728
