388198677916831744
388101266574155776
388035281284132864
388035204238950400
388033789303078912
388033368496934912
388028456803790848
387700843144679424
387674023401754624
387027080502059008
386763376346824704
386588543490879488
386576763960053760
386568178890838017
386567997105508352
386030568695025664
386029847891296256
386013447969705984
386013304943943681
385955481690193920
