387986900927401984
387362348639334402
386966671459889152
386966558981251072
386718307287846913
386588508829544449
386163782960967680
385787431410483200
385779949862666240
385291012757004288
385231210378952704
385196500374274048
384906541738242048
384874252882956288
384810713942097920
384418025128357888
384194888033509376
383446846452277248
382671645350981632
382650498685210624
